…
``` r
#tokenize the abstracts and count
  data %>% 
  unnest_tokens(token,abstract) %>% 
  group_by(term) %>% 
  count(token,sort= TRUE) %>% 
  top_n(5,n)
```

    ## # A tibble: 25 x 3
    ## # Groups:   term [5]
    ##    term            token     n
    ##    <chr>           <chr> <int>
    ##  1 covid           the    9741
    ##  2 covid           of     7668
    ##  3 covid           covid  7275
    ##  4 preeclampsia    the    7119
    ##  5 covid           19     7035
    ##  6 covid           and    6861
    ##  7 preeclampsia    of     6837
    ##  8 prostate cancer the    6100
    ##  9 prostate cancer of     5682
    ## 10 preeclampsia    and    5255
    ## # … with 15 more rows

``` r
# remove stop words and number
nums <- as.character(seq(0,100))
data %>% 
unnest_tokens(word, abstract) %>%
group_by(term) %>% 
filter(!(word %in% nums)) %>% 
anti_join(stop_words, by= c("word")) %>% 
count(word, sort = TRUE) %>% 
top_n(5,n) 
```

    ## # A tibble: 26 x 3
    ## # Groups:   term [5]
    ##    term            word             n
    ##    <chr>           <chr>        <int>
    ##  1 covid           covid         7275
    ##  2 prostate cancer cancer        3840
    ##  3 prostate cancer prostate      3832
    ##  4 covid           patients      2293
    ##  5 preeclampsia    pre           2038
    ##  6 preeclampsia    eclampsia     2005
    ##  7 preeclampsia    preeclampsia  1863
    ##  8 preeclampsia    women         1196
    ##  9 preeclampsia    pregnancy      969
    ## 10 covid           disease        943
    ## # … with 16 more rows
…
<!-- end list -->

``` r
# Calculate the TF-IDF value for each word-search term combination. (here you want the search term to be the “document”) What are the 5 tokens from each search term with the highest TF-IDF value? How are the results different from the answers you got in question 1?

data %>% 
  unnest_tokens(token, abstract) %>% 
  group_by(term) %>% 
  filter(!(token %in% nums)) %>% 
  count(token, term) %>% 
  bind_tf_idf(token,term,n) %>% 
  arrange(desc(tf_idf)) 
```

    ## # A tibble: 38,747 x 6
    ## # Groups:   term [5]
    ##    term            token            n      tf   idf  tf_idf
    ##    <chr>           <chr>        <int>   <dbl> <dbl>   <dbl>
    ##  1 covid           covid         7275 0.0391  1.61  0.0629 
    ##  2 prostate cancer prostate      3832 0.0315  1.61  0.0507 
    ##  3 preeclampsia    eclampsia     2005 0.0146  1.61  0.0234 
    ##  4 preeclampsia    preeclampsia  1863 0.0135  1.61  0.0218 
    ##  5 meningitis      meningitis     429 0.00943 1.61  0.0152 
    ##  6 cystic fibrosis cf             625 0.0129  0.916 0.0118 
    ##  7 cystic fibrosis fibrosis       867 0.0179  0.511 0.00913
    ##  8 cystic fibrosis cystic         862 0.0178  0.511 0.00908
    ##  9 meningitis      meningeal      219 0.00481 1.61  0.00775
    ## 10 covid           pandemic       800 0.00430 1.61  0.00692
    ## # … with 38,737 more rows
…
