…
-----

## Question 1: What specialties do we have?

We can use `count()` from `dplyr` to figure out how many different
catagories do we have? Are these catagories related? overlapping? evenly
distributed?

``` r
mt_samples %>%
  count(medical_specialty, sort = TRUE)
```

    ## # A tibble: 40 x 2
    ##    medical_specialty                 n
    ##    <chr>                         <int>
    ##  1 Surgery                        1103
    ##  2 Consult - History and Phy.      516
    ##  3 Cardiovascular / Pulmonary      372
    ##  4 Orthopedic                      355
    ##  5 Radiology                       273
    ##  6 General Medicine                259
    ##  7 Gastroenterology                230
    ##  8 Neurology                       223
    ##  9 SOAP / Chart / Progress Notes   166
    ## 10 Obstetrics / Gynecology         160
    ## # … with 30 more rows
…
``` r
library(tidyr)
#after blood
mt_samples %>% 
  unnest_ngrams(ngram,transcription, 2) %>% 
  separate(ngram, into = c("word1", "word2"), sep = " ") %>% 
  select(word1, word2) %>% 
  anti_join(stop_words, by = c("word1" = "word")) %>% 
  anti_join(stop_words, by = c("word2" = "word")) %>% 
  filter(!(word2 %in% nums)) %>% 
  filter(word1 == "blood") %>% 
  count(word2, sort = TRUE)
```

    ## # A tibble: 115 x 2
    ##    word2           n
    ##    <chr>       <int>
    ##  1 pressure     1265
    ##  2 loss          965
    ##  3 cell          130
    ##  4 cells         112
    ##  5 sugar          91
    ##  6 sugars         79
    ##  7 cultures       53
    ##  8 flow           45
    ##  9 transfusion    42
    ## 10 glucose        37
    ## # … with 105 more rows

``` r
#before blood
mt_samples %>% 
  unnest_ngrams(ngram,transcription, 2) %>% 
  separate(ngram, into = c("word1", "word2"), sep = " ") %>% 
  select(word1, word2) %>% 
  anti_join(stop_words, by = c("word1" = "word")) %>% 
  anti_join(stop_words, by = c("word2" = "word")) %>% 
  filter(!(word1 %in% nums)) %>% 
  filter(word2 == "blood") %>% 
  count(word1, sort = TRUE)
```

    ## # A tibble: 317 x 2
    ##    word1         n
    ##    <chr>     <int>
    ##  1 estimated   754
    ##  2 white       180
    ##  3 signs       170
    ##  4 red         123
    ##  5 pounds       48
    ##  6 cold         29
    ##  7 cord         28
    ##  8 fasting      28
    ##  9 elevated     27
    ## 10 patient's    26
    ## # … with 307 more rows
…
Which words are most used in each of the specialties. you can use
`group_by()` and `top_n()` from `dplyr` to have the calculations be done
within each specialty. Remember to remove stopwords. How about the most
5 used words?

``` r
mt_samples %>% 
  unnest_tokens(token, transcription) %>% 
  anti_join(stop_words, by = c("token" = "word")) %>% 
  group_by(medical_specialty) %>% 
  count(token) %>% 
  top_n(5,n)
```

    ## # A tibble: 209 x 3
    ## # Groups:   medical_specialty [40]
    ##    medical_specialty    token         n
    ##    <chr>                <chr>     <int>
    ##  1 Allergy / Immunology allergies    21
    ##  2 Allergy / Immunology history      38
    ##  3 Allergy / Immunology nasal        13
    ##  4 Allergy / Immunology noted        23
    ##  5 Allergy / Immunology past         13
    ##  6 Allergy / Immunology patient      22
    ##  7 Autopsy              1            66
    ##  8 Autopsy              anterior     47
    ##  9 Autopsy              inch         59
    ## 10 Autopsy              left         83
    ## # … with 199 more rows
…
<!-- end list -->

``` r
mt_samples %>% 
  unnest_tokens(token, transcription) %>% 
  anti_join(stop_words, by = c("token" = "word")) %>% 
  group_by(medical_specialty) %>% 
  count(token, medical_specialty) %>% 
  bind_tf_idf(token,medical_specialty,n) %>% 
  arrange(desc(tf_idf)) %>% 
  top_n(1,n)
```

    ## # A tibble: 41 x 6
    ## # Groups:   medical_specialty [40]
    ##    medical_specialty        token       n     tf    idf   tf_idf
    ##    <chr>                    <chr>   <int>  <dbl>  <dbl>    <dbl>
    ##  1 Lab Medicine - Pathology tumor      35 0.0288 0.470  0.0135  
    ##  2 Sleep Medicine           sleep     143 0.0407 0.223  0.00907 
    ##  3 Ophthalmology            eye       456 0.0278 0.255  0.00710 
    ##  4 Podiatry                 foot      232 0.0193 0.357  0.00688 
    ##  5 Endocrinology            thyroid   129 0.0199 0.255  0.00508 
    ##  6 Lab Medicine - Pathology cm         35 0.0288 0.134  0.00384 
    ##  7 Office Notes             normal    230 0.0299 0.0513 0.00153 
    ##  8 Chiropractic             pain      187 0.0278 0.0253 0.000705
    ##  9 IME-QME-Work Comp etc.   pain      152 0.0180 0.0253 0.000456
    ## 10 Letters                  pain       80 0.0149 0.0253 0.000378
    ## # … with 31 more rows
…
